^C:\USERS\USER\SOURCE\REPOS\AR_LAB1\TASK2_NEW\DEBUG\TASK2_NEW.OBJ
C:\USERS\USER\SOURCE\REPOS\AR_LAB1\DEBUG\TASK2_NEW.EXE
C:\USERS\USER\SOURCE\REPOS\AR_LAB1\DEBUG\TASK2_NEW.ILK
C:\USERS\USER\SOURCE\REPOS\AR_LAB1\DEBUG\TASK2_NEW.PDB
