^C:\USERS\USER\SOURCE\REPOS\AR_LAB3\TASK2.2\DEBUG\TASK2.1.OBJ
C:\USERS\USER\SOURCE\REPOS\AR_LAB3\DEBUG\TASK2.1.EXE
C:\USERS\USER\SOURCE\REPOS\AR_LAB3\DEBUG\TASK2.1.ILK
C:\USERS\USER\SOURCE\REPOS\AR_LAB3\DEBUG\TASK2.1.PDB
