^C:\USERS\USER\SOURCE\REPOS\AR_LAB3\TASK2\DEBUG\TASK2.2.OBJ
C:\USERS\USER\SOURCE\REPOS\AR_LAB3\DEBUG\TASK2.2.ILK
C:\USERS\USER\SOURCE\REPOS\AR_LAB3\DEBUG\TASK2.2.EXE
C:\USERS\USER\SOURCE\REPOS\AR_LAB3\DEBUG\TASK2.2.PDB
