^C:\USERS\USER\SOURCE\REPOS\AR_LAB3\AR_LAB3\TASK1.CPP
C:\USERS\USER\SOURCE\REPOS\AR_LAB3\AR_LAB3\DEBUG\VC142.PDB
C:\USERS\USER\SOURCE\REPOS\AR_LAB3\AR_LAB3\DEBUG\VC142.IDB
C:\USERS\USER\SOURCE\REPOS\AR_LAB3\AR_LAB3\DEBUG\TASK1.OBJ
