^C:\USERS\USER\SOURCE\REPOS\AR_LAB3\TASK2\TASK2.CPP
C:\USERS\USER\SOURCE\REPOS\AR_LAB3\TASK2\DEBUG\VC142.PDB
C:\USERS\USER\SOURCE\REPOS\AR_LAB3\TASK2\DEBUG\VC142.IDB
C:\USERS\USER\SOURCE\REPOS\AR_LAB3\TASK2\DEBUG\TASK2.OBJ
